Codigo;NIF;Licencia;Nombre;email;TieneFoto;FechaNacimiento
000;27280145Y;000;CABALLERO GONZALEZ, CARLOS;carlos.caballero.gonzalez@gmail.com;SI;02/04/1958
001;27280145Y;001;CABALLERO GONZALEZ, CARLOS;carlos.caballero.gonzalez@gmail.com;NO;02/04/1958
002;27280145Y;002;MELERO LOPEZ, FRANCISCO JAVIER;visupro@hotmail.com;SI;02/04/1958